Supervised Learning
…
Health and income outcomes for 184 countries from 1960 to 2016 from the famous [Gapminder project](https://www.gapminder.org/data)

```r
library(tidyverse)
library(dslabs)
gapminder <- as_tibble(gapminder)
clean_gapminder <- gapminder %>%
  filter(year == 2011, !is.na(gdp)) %>%
  mutate(log_gdp = log(gdp))
clean_gapminder
```

```
## # A tibble: 168 × 10
##    country   year infan…¹ life_…² ferti…³ popul…⁴     gdp conti…⁵ region log_gdp
##    <fct>    <int>   <dbl>   <dbl>   <dbl>   <dbl>   <dbl> <fct>   <fct>    <dbl>
##  1 Albania   2011    14.3    77.4    1.75  2.89e6 6.32e 9 Europe  South…    22.6
##  2 Algeria   2011    22.8    76.1    2.83  3.67e7 8.11e10 Africa  North…    25.1
##  3 Angola    2011   107.     58.1    6.1   2.19e7 2.70e10 Africa  Middl…    24.0
##  4 Antigua…  2011     7.2    75.9    2.12  8.82e4 8.02e 8 Americ… Carib…    20.5
##  5 Argenti…  2011    12.7    76      2.2   4.17e7 4.73e11 Americ… South…    26.9
##  6 Armenia   2011    15.3    73.5    1.5   2.97e6 4.29e 9 Asia    Weste…    22.2
##  7 Austral…  2011     3.8    82.2    1.88  2.25e7 5.73e11 Oceania Austr…    27.1
##  8 Austria   2011     3.4    80.7    1.44  8.42e6 2.31e11 Europe  Weste…    26.2
##  9 Azerbai…  2011    32.5    70.8    1.96  9.23e6 2.14e10 Asia    Weste…    23.8
## 10 Bahamas   2011    11.1    72.6    1.9   3.67e5 6.76e 9 Americ… Carib…    22.6
## # … with 158 more rows, and abbreviated variable names ¹​infant_mortality,
## #   ²​life_expectancy, ³​fertility, ⁴​population, ⁵​continent
```
…
