Supervised Learning
…
For every unit change in `\(x\)`, the odds change by a __factor__ `\(e^{\beta_1}\)`

---

## Example data: NFL field goal attempts

Created dataset using [`nflscrapR-data`](https://github.com/ryurko/nflscrapR-data) of all NFL field goal attempts from 2009 to 2019

```r
nfl_fg_attempts <- read_csv("http://www.stat.cmu.edu/cmsac/sure/2021/materials/data/glm_examples/nfl_fg_attempt_data.csv")
nfl_fg_attempts
```

```
## # A tibble: 10,811 × 11
##    kicke…¹ kicke…²   qtr score…³ home_…⁴ posteam poste…⁵ kick_…⁶ pbp_s…⁷ abs_s…⁸
##    <chr>   <chr>   <dbl>   <dbl> <chr>   <chr>   <chr>     <dbl>   <dbl>   <dbl>
##  1 00-002… R.Biro…     1       0 PIT     TEN     away         37    2009       0
##  2 00-002… R.Biro…     2       0 PIT     TEN     away         31    2009       0
##  3 00-002… R.Biro…     4       0 PIT     TEN     away         45    2009       0
##  4 00-002… J.Reed      4      -3 PIT     PIT     home         32    2009       3
##  5 00-002… J.Reed      5       0 PIT     PIT     home         33    2009       0
##  6 00-000… P.Daws…     1       0 CLE     CLE     home         37    2009       0
##  7 00-001… R.Long…     1      -3 CLE     MIN     away         21    2009       3
##  8 00-000… P.Daws…     2      -7 CLE     CLE     home         20    2009       7
##  9 00-001… R.Long…     4      12 CLE     MIN     away         37    2009      12
## 10 00-000… J.Hans…     1     -14 NO      DET     away         47    2009      14
## # … with 10,801 more rows, 1 more variable: is_fg_made <dbl>, and abbreviated
## #   variable names ¹​kicker_player_id, ²​kicker_player_name, ³​score_differential,
## #   ⁴​home_team, ⁵​posteam_type, ⁶​kick_distance, ⁷​pbp_season, ⁸​abs_score_diff
```
…
