Supervised Learning
…
---

## Example data: NFL teams summary

Created dataset using [`nflfastR`](https://www.nflfastr.com/) summarizing NFL team performances from 1999 to 2020

```r
library(tidyverse)
nfl_teams_data <- read_csv("http://www.stat.cmu.edu/cmsac/sure/2021/materials/data/regression_projects/nfl_team_season_summary.csv")
nfl_teams_data
```

```
## # A tibble: 701 × 55
##    season team  offens…¹ offen…² offen…³ offen…⁴ offen…⁵ offen…⁶ offen…⁷ offen…⁸
##     <dbl> <chr>    <dbl>   <dbl>   <dbl>   <dbl>   <dbl>   <dbl>   <dbl>   <dbl>
##  1   1999 ARI      0.477    2796    1209    4.67    3.15       0     NaN       0
##  2   1999 ATL      0.504    3317    1176    6.08    3.20       0     NaN      11
##  3   1999 BAL      0.452    2805    1663    5.07    4.13       0     NaN       0
##  4   1999 BUF      0.540    3275    2038    6.17    4.13       0     NaN     161
##  5   1999 CAR      0.552    4144    1484    6.68    4.29       0     NaN      89
##  6   1999 CHI      0.561    4090    1359    5.75    3.55       0     NaN     508
##  7   1999 CIN      0.498    3178    1971    5.37    4.63       0     NaN       0
##  8   1999 CLE      0.489    2574    1140    4.71    3.67       0     NaN      35
##  9   1999 DAL      0.560    3083    2054    5.95    4.29       0     NaN       0
## 10   1999 DEN      0.546    3378    1852    5.85    4.05       0     NaN       9
## # … with 691 more rows, 45 more variables: offense_ave_yac <dbl>,
## #   offense_n_plays_pass <dbl>, offense_n_plays_run <dbl>,
## #   offense_n_interceptions <dbl>, offense_n_fumbles_lost_pass <dbl>,
## #   offense_n_fumbles_lost_run <dbl>, offense_total_epa_pass <dbl>,
## #   offense_total_epa_run <dbl>, offense_ave_epa_pass <dbl>,
## #   offense_ave_epa_run <dbl>, offense_total_wpa_pass <dbl>,
## #   offense_total_wpa_run <dbl>, offense_ave_wpa_pass <dbl>, …
```
…
