Supervised Learning
…
Created dataset using [`nflfastR`](https://www.nflfastr.com/) summarizing NFL team performances from 1999 to 2020

```r
library(tidyverse)
nfl_teams_data <- read_csv("http://www.stat.cmu.edu/cmsac/sure/2021/materials/data/regression_projects/nfl_team_season_summary.csv")
nfl_model_data <- nfl_teams_data %>%
  mutate(score_diff = points_scored - points_allowed) %>%
  # Only use rows with air yards
  filter(season >= 2006) %>%
  dplyr::select(-wins, -losses, -ties, -points_scored, -points_allowed, -season, -team)
nfl_model_data
```

```
## # A tibble: 480 × 49
##    offense_com…¹ offen…² offen…³ offen…⁴ offen…⁵ offen…⁶ offen…⁷ offen…⁸ offen…⁹
##            <dbl>   <dbl>   <dbl>   <dbl>   <dbl>   <dbl>   <dbl>   <dbl>   <dbl>
##  1         0.561    3662    1350    6.40    3.28    4284    8.01    1582    4.94
##  2         0.480    2371    2946    5.10    5.56    4698   11.3      942    4.22
##  3         0.612    3435    1667    6.41    3.74    4082    7.88    1391    4.24
##  4         0.564    2718    1555    5.70    3.73    3833    8.91    1243    4.62
##  5         0.569    3264    1674    5.72    4.10    4348    8.07    1553    4.79
##  6         0.525    3286    1940    6.12    4.02    4564    8.90    1374    4.89
##  7         0.588    3827    1648    6.88    3.91    5064    9.76    1466    4.48
##  8         0.565    2893    1347    5.16    3.69    3766    7.43    1533    4.84
##  9         0.569    3838    1954    7.04    4.23    4681    9.38    1427    4.63
## 10         0.529    2799    2167    5.78    4.58    4330    9.56    1233    4.84
## # … with 470 more rows, 40 more variables: offense_n_plays_pass <dbl>,
## #   offense_n_plays_run <dbl>, offense_n_interceptions <dbl>,
## #   offense_n_fumbles_lost_pass <dbl>, offense_n_fumbles_lost_run <dbl>,
## #   offense_total_epa_pass <dbl>, offense_total_epa_run <dbl>,
## #   offense_ave_epa_pass <dbl>, offense_ave_epa_run <dbl>,
## #   offense_total_wpa_pass <dbl>, offense_total_wpa_run <dbl>,
## #   offense_ave_wpa_pass <dbl>, offense_ave_wpa_run <dbl>, …
```
…
